<svg width="118" height="113" viewBox="0 0 118 113" fill="none" xmlns="http://www.w3.org/2000/svg">
<path d="M118 83.0527V56.0049C118 54.9442 117.077 54.0956 115.924 54.0956H89.5093V28.9571C89.5093 27.8964 88.5865 27.0478 87.433 27.0478H61.1339V1.90926C61.1339 0.848559 60.2112 0 59.0577 0H2.07625C0.692082 0 0 0.742489 0 1.90926V28.9571C0 30.0178 0.922776 30.8663 2.07625 30.8663H28.4907V54.2017H2.07625C0.922776 54.2017 0 55.0502 0 56.1109V83.1588C0 84.2195 0.922776 85.068 2.07625 85.068H28.4907V110.101C28.4907 111.161 29.4135 112.01 30.567 112.01H87.5484C88.7019 112.01 89.6246 111.161 89.6246 110.101V84.962H116.039C117.654 84.962 118 84.0073 118 83.0527ZM113.963 73.2943C113.04 72.2336 112.002 71.385 110.848 70.6425C107.388 68.7333 103.12 68.7333 98.2757 70.6425C84.088 76.0521 74.9756 72.0214 74.8602 72.0214C73.8221 71.5971 72.6686 71.9154 72.0919 72.87C71.5152 73.8246 71.9765 74.8853 73.0147 75.4157C73.4761 75.6278 83.8573 80.4009 99.8905 74.1428C103.582 72.7639 106.581 72.6578 108.888 73.9307C111.887 75.5217 113.155 79.022 113.732 81.2495H61.1339V64.8087C63.0948 63.9601 68.2854 62.6873 75.8983 67.3543C79.0127 69.2636 82.7038 70.3243 86.3949 70.3243C88.8172 70.3243 91.2395 69.9 93.5464 68.9454C98.7371 66.824 102.544 62.7933 104.043 57.8081H114.078L113.963 73.2943ZM90.086 57.9141C88.5865 59.0809 86.741 59.6113 84.7801 59.5052C83.5112 59.293 82.4731 58.7627 81.5503 57.9141H90.086ZM76.4751 57.9141C77.5132 59.6113 80.0508 62.5812 84.088 63.1116C84.5494 63.2176 85.0108 63.2176 85.4721 63.2176C88.9326 63.2176 92.5083 61.4144 96.0841 57.9141H99.6598C98.2757 61.4144 95.5073 64.1723 91.8162 65.6572C87.3177 67.4604 82.0117 66.9301 77.9746 64.2783C70.3617 59.6113 64.3636 60.0355 61.0186 60.8841V57.8081H76.4751V57.9141ZM28.0293 27.1539C29.5288 25.9871 31.3744 25.4568 33.3353 25.5628C34.6041 25.775 35.6422 26.3053 36.565 27.1539H28.0293ZM41.6403 27.1539C40.6022 25.4568 38.0645 22.4868 34.0274 21.9565C30.2209 21.4261 26.1838 23.2293 22.0313 27.1539H18.4555C19.8397 23.6536 22.608 20.8958 26.2991 19.4108C30.7977 17.6076 36.1036 18.1379 40.1408 20.7897C47.7537 25.4568 53.7517 25.0325 57.0968 24.1839V27.26H41.6403V27.1539ZM4.15249 11.6677C5.07527 12.7284 6.11339 13.5769 7.26686 14.3194C8.99707 15.2741 10.958 15.8044 13.0342 15.8044C15.4565 15.8044 17.7634 15.2741 19.8397 14.4255C34.0274 9.01594 43.1398 13.0466 43.2551 13.0466C44.2933 13.4709 45.4467 13.1527 45.9081 12.198C46.3695 11.3495 46.0235 10.1827 45.1007 9.75843C44.6393 9.54629 34.2581 4.77314 18.2248 11.0313C14.5337 12.4102 11.5347 12.5162 9.22776 11.2434C6.22874 9.65236 4.95992 6.15205 4.38319 3.92458H56.8661V20.2593C54.9052 21.1079 49.7146 22.3807 42.1017 17.7137C36.911 14.4255 30.2209 13.7891 24.4536 16.1226C19.263 18.244 15.4565 22.2747 13.957 27.26H3.9218V11.6677H4.15249ZM71.1691 30.8663C69.785 34.3666 67.0166 37.1244 63.3255 38.6094C58.827 40.4126 53.521 39.8823 49.4839 37.2305C41.871 32.5634 35.8729 32.9877 32.5279 33.8363V30.7603H71.1691V30.8663ZM32.6432 45.3979C34.2581 44.9736 35.8729 45.0797 37.4878 45.61C38.4106 46.1404 39.6794 45.8222 40.2561 44.8675C40.8328 44.019 40.4868 42.8522 39.564 42.4279C37.4878 41.4733 35.0655 41.1551 32.7586 41.5794V37.7609C34.7195 36.9123 39.9101 35.6395 47.523 40.3065C50.4067 42.2158 54.0978 43.2765 57.9042 43.2765C60.3265 43.2765 62.7488 42.8522 65.0557 41.8976C70.2463 39.7762 74.0528 35.7455 75.5523 30.7603H85.5875V46.1404C84.6647 45.0797 83.6266 44.2311 82.4731 43.4886C79.0127 41.5794 74.7449 41.5794 69.9003 43.4886C55.7126 48.8982 46.6002 44.8675 46.4848 44.8675C45.4467 44.4433 44.2933 44.7615 43.7165 45.7161C43.2551 46.6707 43.6012 47.7314 44.6393 48.2618C45.1007 48.4739 55.4819 53.2471 71.5152 46.9889C75.2063 45.61 78.2053 45.504 80.5122 46.7768C83.5112 48.3678 84.7801 51.8682 85.3568 54.0956H32.6432V45.3979ZM56.6354 57.9141C56.0587 60.1416 54.6745 63.6419 51.7908 65.2329C49.4839 66.5058 46.4849 66.3997 42.7937 65.0208C26.7605 58.8688 16.3793 63.5358 15.9179 63.748C14.8798 64.2783 14.5337 65.339 15.1105 66.2936C15.5718 67.1422 16.8407 67.5665 17.7634 67.0361C17.8788 67.0361 26.8759 62.8994 41.1789 68.4151C43.3705 69.2636 45.6774 69.794 47.9844 69.794C50.0606 69.794 52.0215 69.3697 53.7517 68.4151C55.0205 67.7786 56.0587 66.824 56.9814 65.7633V81.1434H46.9462C45.4467 76.1581 41.6403 72.1275 36.4497 70.0061C30.6823 67.7786 23.9922 68.309 18.8016 71.5971C11.1887 76.2642 5.99804 74.8853 4.03714 74.1428V70.3243C4.72923 70.4304 5.42131 70.5364 6.11339 70.5364C7.72825 70.5364 9.34311 70.2182 10.8426 69.5818C11.7654 69.0515 12.1114 67.9908 11.5347 67.0361C10.958 66.1876 9.8045 65.8694 8.76637 66.2936C7.26686 66.9301 5.53666 66.9301 3.9218 66.5058V57.702H56.6354V57.9141ZM4.15249 78.1735C7.49756 79.1281 13.4956 79.4463 21.1085 74.7792C25.1457 72.1275 30.3363 71.7032 34.9501 73.4003C38.6413 74.8853 41.4096 77.6431 42.7937 81.1434H4.15249V78.1735ZM49.7146 108.297C51.2141 107.131 53.0596 106.6 55.0205 106.706C56.2894 106.918 57.3275 107.449 58.2502 108.297H49.7146ZM85.4721 93.6597C83.8573 94.084 82.2424 93.9779 80.6276 93.4475C79.7048 92.9172 78.436 93.2354 77.8592 94.19C77.2825 95.0386 77.6285 96.2054 78.5513 96.6296C80.0508 97.2661 81.6657 97.6903 83.2805 97.5843C83.9726 97.5843 84.6647 97.4782 85.3568 97.3721V108.191H63.3255C62.2874 106.494 59.7498 103.524 55.7126 102.994C51.9062 102.463 47.869 104.267 43.7165 108.191H40.1408C41.5249 104.691 44.2933 101.933 47.9844 100.448C52.4829 98.645 57.7889 99.1753 61.826 101.827C73.9374 109.146 81.6657 104.055 82.0117 103.842C82.9345 103.206 83.0499 102.145 82.4731 101.297C81.781 100.448 80.6276 100.236 79.7048 100.872C79.4741 100.979 73.7067 104.585 64.1329 98.751C58.9423 95.4629 52.2522 94.8264 46.4848 97.16C41.2942 99.2814 37.4878 103.312 35.9883 108.297H32.7586V92.8111C33.6813 93.8718 34.7195 94.7204 35.8729 95.4629C37.6031 96.4175 39.564 96.9478 41.6403 96.8418C44.0626 96.8418 46.3695 96.3114 48.4458 95.4629C62.6334 90.0533 71.7458 94.084 71.8612 94.084C72.8993 94.5082 74.0528 94.19 74.6295 93.2354C75.0909 92.2808 74.7449 91.2201 73.7067 90.6897C73.2454 90.4776 62.8641 85.7044 46.8309 91.9626C43.1398 93.3415 40.1408 93.4475 37.8338 92.1747C34.8348 90.5836 33.566 87.0833 32.9893 84.8559H85.4721V93.6597Z" fill="#F82419"/>
</svg>
